C:\Users\ACER\eclipse-workspace\jasperReportWork2\src\main\java\com\plusitsolution\jasperReportWork\domain\ReportFinance2439Domain.java
C:\Users\ACER\eclipse-workspace\jasperReportWork2\src\main\java\com\plusitsolution\jasperReportWork\domain\ReportFinance2268Domain.java
C:\Users\ACER\eclipse-workspace\jasperReportWork2\src\main\java\com\plusitsolution\jasperReportWork\service\ReportService.java
C:\Users\ACER\eclipse-workspace\jasperReportWork2\src\main\java\com\plusitsolution\jasperReportWork\domain\ReportRegis2265Domain.java
C:\Users\ACER\eclipse-workspace\jasperReportWork2\src\main\java\com\plusitsolution\jasperReportWork\domain\ReportRegis2384Domain.java
C:\Users\ACER\eclipse-workspace\jasperReportWork2\src\main\java\com\plusitsolution\jasperReportWork\domain\Report.java
C:\Users\ACER\eclipse-workspace\jasperReportWork2\src\main\java\com\plusitsolution\jasperReportWork\domain\ReportRegis2242Domain.java
C:\Users\ACER\eclipse-workspace\jasperReportWork2\src\main\java\com\plusitsolution\jasperReportWork\App.java
C:\Users\ACER\eclipse-workspace\jasperReportWork2\src\main\java\com\plusitsolution\jasperReportWork\controller\ReportController.java
C:\Users\ACER\eclipse-workspace\jasperReportWork2\src\main\java\com\plusitsolution\jasperReportWork\domain\ReportRegis2252Domain.java
C:\Users\ACER\eclipse-workspace\jasperReportWork2\src\main\java\com\plusitsolution\jasperReportWork\domain\ReportFinance2257Domain.java
